<svg width="15.000000" height="15.000000" viewBox="0 0 15 15" fill="none" xmlns="http://www.w3.org/2000/svg" xmlns:xlink="http://www.w3.org/1999/xlink">
	<desc>
			Created with Pixso.
	</desc>
	<defs>
		<clipPath id="clip6_213">
			<rect id="facebook-f" width="15.000000" height="15.000000" fill="white" fill-opacity="0"/>
		</clipPath>
	</defs>
	<rect id="facebook-f" width="15.000000" height="15.000000" fill="#000000" fill-opacity="0"/>
	<g clip-path="url(#clip6_213)">
		<path id="Vector" d="M10.99 8.43L11.4 5.72L8.8 5.72L8.8 3.96C8.8 3.21 9.16 2.49 10.33 2.49L11.51 2.49L11.51 0.18C11.51 0.18 10.44 0 9.41 0C7.26 0 5.86 1.3 5.86 3.65L5.86 5.72L3.48 5.72L3.48 8.43L5.86 8.43L5.86 15L8.8 15L8.8 8.43L10.99 8.43Z" fill="#FFFFFF" fill-opacity="1.000000" fill-rule="nonzero"/>
	</g>
</svg>
