<svg width="15.000000" height="15.000000" viewBox="0 0 15 15" fill="none" xmlns="http://www.w3.org/2000/svg" xmlns:xlink="http://www.w3.org/1999/xlink">
	<desc>
			Created with Pixso.
	</desc>
	<defs/>
	<path id="Vector" d="M4.86 11.4C4.86 11.46 4.79 11.51 4.7 11.51C4.61 11.52 4.54 11.47 4.54 11.4C4.54 11.34 4.61 11.3 4.69 11.3C4.78 11.29 4.86 11.34 4.86 11.4ZM3.94 11.27C3.92 11.33 3.98 11.4 4.07 11.41C4.15 11.44 4.23 11.41 4.25 11.36C4.27 11.3 4.21 11.23 4.13 11.2C4.05 11.18 3.96 11.21 3.94 11.27ZM5.24 11.22C5.15 11.24 5.1 11.3 5.1 11.37C5.11 11.42 5.19 11.46 5.28 11.44C5.36 11.42 5.42 11.37 5.41 11.31C5.4 11.25 5.32 11.21 5.24 11.22ZM7.17 0C3.1 0 0 3.08 0 7.14C0 10.39 2.04 13.17 4.96 14.15C5.34 14.22 5.47 13.99 5.47 13.8C5.47 13.62 5.46 12.61 5.46 12C5.46 12 3.41 12.44 2.98 11.12C2.98 11.12 2.64 10.27 2.16 10.05C2.16 10.05 1.49 9.59 2.21 9.6C2.21 9.6 2.94 9.66 3.34 10.36C3.98 11.49 5.06 11.16 5.48 10.97C5.54 10.5 5.73 10.18 5.95 9.98C4.31 9.8 2.66 9.56 2.66 6.75C2.66 5.94 2.88 5.54 3.35 5.02C3.27 4.83 3.02 4.04 3.42 3.03C4.04 2.84 5.44 3.82 5.44 3.82C6.03 3.66 6.66 3.57 7.28 3.57C7.91 3.57 8.54 3.66 9.12 3.82C9.12 3.82 10.53 2.84 11.15 3.03C11.55 4.05 11.3 4.83 11.22 5.02C11.69 5.54 11.98 5.94 11.98 6.75C11.98 9.57 10.25 9.8 8.61 9.98C8.88 10.21 9.11 10.65 9.11 11.34C9.11 12.33 9.1 13.55 9.1 13.79C9.1 13.98 9.24 14.21 9.61 14.15C12.54 13.17 14.53 10.39 14.53 7.14C14.53 3.08 11.23 0 7.17 0ZM2.84 10.1C2.8 10.13 2.81 10.2 2.86 10.25C2.91 10.3 2.98 10.32 3.02 10.28C3.05 10.25 3.04 10.18 3 10.13C2.95 10.08 2.88 10.06 2.84 10.1ZM2.53 9.86C2.51 9.9 2.54 9.95 2.59 9.98C2.64 10.01 2.7 10 2.72 9.96C2.74 9.92 2.71 9.87 2.65 9.84C2.59 9.82 2.55 9.83 2.53 9.86ZM3.48 10.91C3.43 10.94 3.45 11.03 3.51 11.09C3.58 11.15 3.67 11.16 3.7 11.12C3.74 11.08 3.72 10.99 3.67 10.93C3.6 10.87 3.51 10.86 3.48 10.91ZM3.14 10.47C3.09 10.5 3.09 10.58 3.14 10.65C3.19 10.71 3.27 10.74 3.31 10.71C3.35 10.68 3.35 10.6 3.31 10.53C3.26 10.47 3.19 10.44 3.14 10.47Z" fill="#FFFFFF" fill-opacity="1.000000" fill-rule="nonzero"/>
</svg>
